# 3ds Max Wavefront OBJ Exporter v0.97b - (c)2007 guruware
# File Created: 13.06.2014 17:59:23

newmtl Ground
	Ns 20.0000
	Ni 1.5000
	d 1.0000
	Tr 0.0000
	Tf 1.0000 1.0000 1.0000 
	illum 2
	Ka 0.5880 0.5880 0.5880
	Kd 0.5880 0.5880 0.5880
	Ks 0.0900 0.0900 0.0900
	Ke 0.0000 0.0000 0.0000
	map_Ka ..\assets\textures\concrete_modular_floor001c.png
	map_Kd ..\assets\textures\concrete_modular_floor001c.png

newmtl Wall
	Ns 10.0000
	Ni 1.5000
	d 1.0000
	Tr 0.0000
	Tf 1.0000 1.0000 1.0000 
	illum 2
	Ka 0.5880 0.5880 0.5880
	Kd 0.5880 0.5880 0.5880
	Ks 0.0000 0.0000 0.0000
	Ke 0.0000 0.0000 0.0000
	map_Ka ..\assets\textures\concrete_modular_wall001e.png
	map_Kd ..\assets\textures\concrete_modular_wall001e.png

newmtl Wall2
	Ns 10.0000
	Ni 1.5000
	d 1.0000
	Tr 0.0000
	Tf 1.0000 1.0000 1.0000 
	illum 2
	Ka 0.5880 0.5880 0.5880
	Kd 0.5880 0.5880 0.5880
	Ks 0.0000 0.0000 0.0000
	Ke 0.0000 0.0000 0.0000
	map_Ka ..\assets\textures\concrete_modular_wall001a.png
	map_Kd ..\assets\textures\concrete_modular_wall001a.png

newmtl Wall3
	Ns 10.0000
	Ni 1.5000
	d 1.0000
	Tr 0.0000
	Tf 1.0000 1.0000 1.0000 
	illum 2
	Ka 0.5880 0.5880 0.5880
	Kd 0.5880 0.5880 0.5880
	Ks 0.0000 0.0000 0.0000
	Ke 0.0000 0.0000 0.0000
	map_Ka ..\assets\textures\concrete_bts_modular_wall001a.png
	map_Kd ..\assets\textures\concrete_bts_modular_wall001a.png

newmtl Ceiling
	Ns 10.0000
	Ni 1.5000
	d 1.0000
	Tr 0.0000
	Tf 1.0000 1.0000 1.0000 
	illum 2
	Ka 0.5880 0.5880 0.5880
	Kd 0.5880 0.5880 0.5880
	Ks 0.0000 0.0000 0.0000
	Ke 0.0000 0.0000 0.0000
	map_Ka ..\assets\textures\concrete_modular_ceiling001a.png
	map_Kd ..\assets\textures\concrete_modular_ceiling001a.png
